-- Merging decision tree log ---
manifest
ADDED from C:\Users\josem\Desktop\MasterRecipes\app\src\main\AndroidManifest.xml:2:1-25:12
INJECTED from C:\Users\josem\Desktop\MasterRecipes\app\src\main\AndroidManifest.xml:2:1-25:12
INJECTED from C:\Users\josem\Desktop\MasterRecipes\app\src\main\AndroidManifest.xml:2:1-25:12
INJECTED from C:\Users\josem\Desktop\MasterRecipes\app\src\main\AndroidManifest.xml:2:1-25:12
MERGED from [com.android.support:appcompat-v7:28.0.0] C:\Users\josem\.gradle\caches\transforms-1\files-1.1\appcompat-v7-28.0.0.aar\710b3909dff00b41b06ccdf324e4cff4\AndroidManifest.xml:17:1-22:12
MERGED from [com.android.support.constraint:constraint-layout:1.1.3] C:\Users\josem\.gradle\caches\transforms-1\files-1.1\constraint-layout-1.1.3.aar\72ed106641ef0ffd7b5952de68250484\AndroidManifest.xml:2:1-11:12
MERGED from [android.arch.persistence.room:runtime:1.0.0] C:\Users\josem\.gradle\caches\transforms-1\files-1.1\runtime-1.0.0.aar\015ce5aeeec9d564f5f57a2348e336a5\AndroidManifest.xml:17:1-24:12
MERGED from [com.android.support:support-fragment:28.0.0] C:\Users\josem\.gradle\caches\transforms-1\files-1.1\support-fragment-28.0.0.aar\148fe404fc87bcc7140ee06a591cc142\AndroidManifest.xml:17:1-22:12
MERGED from [com.android.support:animated-vector-drawable:28.0.0] C:\Users\josem\.gradle\caches\transforms-1\files-1.1\animated-vector-drawable-28.0.0.aar\fc81b0db3e837fd570ab6b5d1b42d0c1\AndroidManifest.xml:17:1-22:12
MERGED from [com.android.support:support-vector-drawable:28.0.0] C:\Users\josem\.gradle\caches\transforms-1\files-1.1\support-vector-drawable-28.0.0.aar\fd4e2518bca848f0c1a023295e68c5eb\AndroidManifest.xml:17:1-22:12
MERGED from [com.android.support:support-core-ui:28.0.0] C:\Users\josem\.gradle\caches\transforms-1\files-1.1\support-core-ui-28.0.0.aar\c7f3ee19131cc962d915c8b2f1d01213\AndroidManifest.xml:17:1-22:12
MERGED from [com.android.support:support-core-utils:28.0.0] C:\Users\josem\.gradle\caches\transforms-1\files-1.1\support-core-utils-28.0.0.aar\087ec0a3b223f2abadbb2600dbc784ed\AndroidManifest.xml:17:1-22:12
MERGED from [com.android.support:loader:28.0.0] C:\Users\josem\.gradle\caches\transforms-1\files-1.1\loader-28.0.0.aar\93366bcee428f2d73e5d11d6eee8d387\AndroidManifest.xml:17:1-22:12
MERGED from [com.android.support:viewpager:28.0.0] C:\Users\josem\.gradle\caches\transforms-1\files-1.1\viewpager-28.0.0.aar\de6c8c2c0d729cbed43ffef5b40ba253\AndroidManifest.xml:17:1-22:12
MERGED from [com.android.support:coordinatorlayout:28.0.0] C:\Users\josem\.gradle\caches\transforms-1\files-1.1\coordinatorlayout-28.0.0.aar\20b48e7a841b335f9f129689c6664606\AndroidManifest.xml:17:1-22:12
MERGED from [com.android.support:drawerlayout:28.0.0] C:\Users\josem\.gradle\caches\transforms-1\files-1.1\drawerlayout-28.0.0.aar\9d7fe745059d28bdf88585ec280afd98\AndroidManifest.xml:17:1-22:12
MERGED from [com.android.support:slidingpanelayout:28.0.0] C:\Users\josem\.gradle\caches\transforms-1\files-1.1\slidingpanelayout-28.0.0.aar\cf90f064d491d50e62f294beaf16269f\AndroidManifest.xml:17:1-22:12
MERGED from [com.android.support:customview:28.0.0] C:\Users\josem\.gradle\caches\transforms-1\files-1.1\customview-28.0.0.aar\cf8fe07a712921be757d9c78654b5b71\AndroidManifest.xml:17:1-22:12
MERGED from [com.android.support:swiperefreshlayout:28.0.0] C:\Users\josem\.gradle\caches\transforms-1\files-1.1\swiperefreshlayout-28.0.0.aar\369814176f7a415b4931771d58a2715f\AndroidManifest.xml:17:1-22:12
MERGED from [com.android.support:asynclayoutinflater:28.0.0] C:\Users\josem\.gradle\caches\transforms-1\files-1.1\asynclayoutinflater-28.0.0.aar\39243e632fa248d1ea57942eb2ab80ca\AndroidManifest.xml:17:1-22:12
MERGED from [com.android.support:support-compat:28.0.0] C:\Users\josem\.gradle\caches\transforms-1\files-1.1\support-compat-28.0.0.aar\9e4087fcd546b04530b3b49f1ab97e9c\AndroidManifest.xml:17:1-24:12
MERGED from [com.android.support:versionedparcelable:28.0.0] C:\Users\josem\.gradle\caches\transforms-1\files-1.1\versionedparcelable-28.0.0.aar\30b8d8304620a0a1ec540773adc41ad5\AndroidManifest.xml:17:1-25:12
MERGED from [com.android.support:cursoradapter:28.0.0] C:\Users\josem\.gradle\caches\transforms-1\files-1.1\cursoradapter-28.0.0.aar\214b5a3ba42786fdf1f6c5363e641e4a\AndroidManifest.xml:17:1-22:12
MERGED from [android.arch.persistence:db-framework:1.0.0] C:\Users\josem\.gradle\caches\transforms-1\files-1.1\db-framework-1.0.0.aar\5a0c2081030fe162e4600924815dcd9a\AndroidManifest.xml:17:1-24:12
MERGED from [android.arch.persistence:db:1.0.0] C:\Users\josem\.gradle\caches\transforms-1\files-1.1\db-1.0.0.aar\ecce096a6f608e0e7b679705a62fc627\AndroidManifest.xml:17:1-24:12
MERGED from [android.arch.lifecycle:runtime:1.1.1] C:\Users\josem\.gradle\caches\transforms-1\files-1.1\runtime-1.1.1.aar\a1b8423fb04631b316959a03ed473b6f\AndroidManifest.xml:17:1-22:12
MERGED from [android.arch.lifecycle:viewmodel:1.1.1] C:\Users\josem\.gradle\caches\transforms-1\files-1.1\viewmodel-1.1.1.aar\85fc066bd28ac35568690b0377f555ef\AndroidManifest.xml:17:1-22:12
MERGED from [android.arch.lifecycle:livedata:1.1.1] C:\Users\josem\.gradle\caches\transforms-1\files-1.1\livedata-1.1.1.aar\98a6527d4bf7042b8089dd37f2c48d36\AndroidManifest.xml:17:1-22:12
MERGED from [android.arch.lifecycle:livedata-core:1.1.1] C:\Users\josem\.gradle\caches\transforms-1\files-1.1\livedata-core-1.1.1.aar\37458039c6009f13cefe8d187337bbd1\AndroidManifest.xml:17:1-22:12
MERGED from [com.android.support:interpolator:28.0.0] C:\Users\josem\.gradle\caches\transforms-1\files-1.1\interpolator-28.0.0.aar\dc55fac53680991748eaed203e5684d0\AndroidManifest.xml:17:1-22:12
MERGED from [com.android.support:documentfile:28.0.0] C:\Users\josem\.gradle\caches\transforms-1\files-1.1\documentfile-28.0.0.aar\65d4c2596dbe9a174ae7b7294f1d4f38\AndroidManifest.xml:17:1-22:12
MERGED from [com.android.support:localbroadcastmanager:28.0.0] C:\Users\josem\.gradle\caches\transforms-1\files-1.1\localbroadcastmanager-28.0.0.aar\b1b9a1d4aec1515950f22a2c6533d49b\AndroidManifest.xml:17:1-22:12
MERGED from [com.android.support:print:28.0.0] C:\Users\josem\.gradle\caches\transforms-1\files-1.1\print-28.0.0.aar\127227827a4b3330e1ad4ca903359a35\AndroidManifest.xml:17:1-22:12
MERGED from [android.arch.core:runtime:1.1.1] C:\Users\josem\.gradle\caches\transforms-1\files-1.1\runtime-1.1.1.aar\923be988d44cc3dca41760cee1bc42eb\AndroidManifest.xml:17:1-22:12
INJECTED from C:\Users\josem\Desktop\MasterRecipes\app\src\main\AndroidManifest.xml:2:1-25:12
INJECTED from C:\Users\josem\Desktop\MasterRecipes\app\src\main\AndroidManifest.xml:2:1-25:12
INJECTED from C:\Users\josem\Desktop\MasterRecipes\app\src\main\AndroidManifest.xml:2:1-25:12
	package
		ADDED from C:\Users\josem\Desktop\MasterRecipes\app\src\main\AndroidManifest.xml:3:5-40
		INJECTED from C:\Users\josem\Desktop\MasterRecipes\app\src\main\AndroidManifest.xml
		INJECTED from C:\Users\josem\Desktop\MasterRecipes\app\src\main\AndroidManifest.xml
	android:versionName
		INJECTED from C:\Users\josem\Desktop\MasterRecipes\app\src\main\AndroidManifest.xml
		ADDED from C:\Users\josem\Desktop\MasterRecipes\app\src\main\AndroidManifest.xml:2:1-25:12
		INJECTED from C:\Users\josem\Desktop\MasterRecipes\app\src\main\AndroidManifest.xml
	android:versionCode
		INJECTED from C:\Users\josem\Desktop\MasterRecipes\app\src\main\AndroidManifest.xml
		ADDED from C:\Users\josem\Desktop\MasterRecipes\app\src\main\AndroidManifest.xml:2:1-25:12
		INJECTED from C:\Users\josem\Desktop\MasterRecipes\app\src\main\AndroidManifest.xml
	xmlns:android
		ADDED from C:\Users\josem\Desktop\MasterRecipes\app\src\main\AndroidManifest.xml:2:11-69
application
ADDED from C:\Users\josem\Desktop\MasterRecipes\app\src\main\AndroidManifest.xml:5:5-23:19
MERGED from [com.android.support.constraint:constraint-layout:1.1.3] C:\Users\josem\.gradle\caches\transforms-1\files-1.1\constraint-layout-1.1.3.aar\72ed106641ef0ffd7b5952de68250484\AndroidManifest.xml:9:5-20
MERGED from [com.android.support.constraint:constraint-layout:1.1.3] C:\Users\josem\.gradle\caches\transforms-1\files-1.1\constraint-layout-1.1.3.aar\72ed106641ef0ffd7b5952de68250484\AndroidManifest.xml:9:5-20
MERGED from [com.android.support:support-compat:28.0.0] C:\Users\josem\.gradle\caches\transforms-1\files-1.1\support-compat-28.0.0.aar\9e4087fcd546b04530b3b49f1ab97e9c\AndroidManifest.xml:22:5-94
MERGED from [com.android.support:support-compat:28.0.0] C:\Users\josem\.gradle\caches\transforms-1\files-1.1\support-compat-28.0.0.aar\9e4087fcd546b04530b3b49f1ab97e9c\AndroidManifest.xml:22:5-94
MERGED from [com.android.support:versionedparcelable:28.0.0] C:\Users\josem\.gradle\caches\transforms-1\files-1.1\versionedparcelable-28.0.0.aar\30b8d8304620a0a1ec540773adc41ad5\AndroidManifest.xml:22:5-23:19
MERGED from [com.android.support:versionedparcelable:28.0.0] C:\Users\josem\.gradle\caches\transforms-1\files-1.1\versionedparcelable-28.0.0.aar\30b8d8304620a0a1ec540773adc41ad5\AndroidManifest.xml:22:5-23:19
	android:appComponentFactory
		ADDED from [com.android.support:support-compat:28.0.0] C:\Users\josem\.gradle\caches\transforms-1\files-1.1\support-compat-28.0.0.aar\9e4087fcd546b04530b3b49f1ab97e9c\AndroidManifest.xml:22:18-91
	android:supportsRtl
		ADDED from C:\Users\josem\Desktop\MasterRecipes\app\src\main\AndroidManifest.xml:10:9-35
	android:label
		ADDED from C:\Users\josem\Desktop\MasterRecipes\app\src\main\AndroidManifest.xml:8:9-41
	android:roundIcon
		ADDED from C:\Users\josem\Desktop\MasterRecipes\app\src\main\AndroidManifest.xml:9:9-54
	android:icon
		ADDED from C:\Users\josem\Desktop\MasterRecipes\app\src\main\AndroidManifest.xml:7:9-43
	android:allowBackup
		ADDED from C:\Users\josem\Desktop\MasterRecipes\app\src\main\AndroidManifest.xml:6:9-35
	android:theme
		ADDED from C:\Users\josem\Desktop\MasterRecipes\app\src\main\AndroidManifest.xml:11:9-40
activity#pt.ipp.estg.masterrecipes.Login
ADDED from C:\Users\josem\Desktop\MasterRecipes\app\src\main\AndroidManifest.xml:12:9-19:20
	android:screenOrientation
		ADDED from C:\Users\josem\Desktop\MasterRecipes\app\src\main\AndroidManifest.xml:13:13-49
	android:name
		ADDED from C:\Users\josem\Desktop\MasterRecipes\app\src\main\AndroidManifest.xml:12:19-40
intent-filter#action:name:android.intent.action.MAIN+category:name:android.intent.category.LAUNCHER
ADDED from C:\Users\josem\Desktop\MasterRecipes\app\src\main\AndroidManifest.xml:14:13-18:29
action#android.intent.action.MAIN
ADDED from C:\Users\josem\Desktop\MasterRecipes\app\src\main\AndroidManifest.xml:15:17-69
	android:name
		ADDED from C:\Users\josem\Desktop\MasterRecipes\app\src\main\AndroidManifest.xml:15:25-66
category#android.intent.category.LAUNCHER
ADDED from C:\Users\josem\Desktop\MasterRecipes\app\src\main\AndroidManifest.xml:17:17-77
	android:name
		ADDED from C:\Users\josem\Desktop\MasterRecipes\app\src\main\AndroidManifest.xml:17:27-74
activity#pt.ipp.estg.masterrecipes.UserActivity
ADDED from C:\Users\josem\Desktop\MasterRecipes\app\src\main\AndroidManifest.xml:20:9-87
	android:screenOrientation
		ADDED from C:\Users\josem\Desktop\MasterRecipes\app\src\main\AndroidManifest.xml:20:48-84
	android:name
		ADDED from C:\Users\josem\Desktop\MasterRecipes\app\src\main\AndroidManifest.xml:20:19-47
activity#pt.ipp.estg.masterrecipes.Registo
ADDED from C:\Users\josem\Desktop\MasterRecipes\app\src\main\AndroidManifest.xml:21:9-91
	android:screenOrientation
		ADDED from C:\Users\josem\Desktop\MasterRecipes\app\src\main\AndroidManifest.xml:21:43-79
	android:name
		ADDED from C:\Users\josem\Desktop\MasterRecipes\app\src\main\AndroidManifest.xml:21:19-42
uses-sdk
INJECTED from C:\Users\josem\Desktop\MasterRecipes\app\src\main\AndroidManifest.xml reason: use-sdk injection requested
INJECTED from C:\Users\josem\Desktop\MasterRecipes\app\src\main\AndroidManifest.xml
INJECTED from C:\Users\josem\Desktop\MasterRecipes\app\src\main\AndroidManifest.xml
MERGED from [com.android.support:appcompat-v7:28.0.0] C:\Users\josem\.gradle\caches\transforms-1\files-1.1\appcompat-v7-28.0.0.aar\710b3909dff00b41b06ccdf324e4cff4\AndroidManifest.xml:20:5-44
MERGED from [com.android.support:appcompat-v7:28.0.0] C:\Users\josem\.gradle\caches\transforms-1\files-1.1\appcompat-v7-28.0.0.aar\710b3909dff00b41b06ccdf324e4cff4\AndroidManifest.xml:20:5-44
MERGED from [com.android.support.constraint:constraint-layout:1.1.3] C:\Users\josem\.gradle\caches\transforms-1\files-1.1\constraint-layout-1.1.3.aar\72ed106641ef0ffd7b5952de68250484\AndroidManifest.xml:5:5-7:41
MERGED from [com.android.support.constraint:constraint-layout:1.1.3] C:\Users\josem\.gradle\caches\transforms-1\files-1.1\constraint-layout-1.1.3.aar\72ed106641ef0ffd7b5952de68250484\AndroidManifest.xml:5:5-7:41
MERGED from [android.arch.persistence.room:runtime:1.0.0] C:\Users\josem\.gradle\caches\transforms-1\files-1.1\runtime-1.0.0.aar\015ce5aeeec9d564f5f57a2348e336a5\AndroidManifest.xml:20:5-22:41
MERGED from [android.arch.persistence.room:runtime:1.0.0] C:\Users\josem\.gradle\caches\transforms-1\files-1.1\runtime-1.0.0.aar\015ce5aeeec9d564f5f57a2348e336a5\AndroidManifest.xml:20:5-22:41
MERGED from [com.android.support:support-fragment:28.0.0] C:\Users\josem\.gradle\caches\transforms-1\files-1.1\support-fragment-28.0.0.aar\148fe404fc87bcc7140ee06a591cc142\AndroidManifest.xml:20:5-44
MERGED from [com.android.support:support-fragment:28.0.0] C:\Users\josem\.gradle\caches\transforms-1\files-1.1\support-fragment-28.0.0.aar\148fe404fc87bcc7140ee06a591cc142\AndroidManifest.xml:20:5-44
MERGED from [com.android.support:animated-vector-drawable:28.0.0] C:\Users\josem\.gradle\caches\transforms-1\files-1.1\animated-vector-drawable-28.0.0.aar\fc81b0db3e837fd570ab6b5d1b42d0c1\AndroidManifest.xml:20:5-44
MERGED from [com.android.support:animated-vector-drawable:28.0.0] C:\Users\josem\.gradle\caches\transforms-1\files-1.1\animated-vector-drawable-28.0.0.aar\fc81b0db3e837fd570ab6b5d1b42d0c1\AndroidManifest.xml:20:5-44
MERGED from [com.android.support:support-vector-drawable:28.0.0] C:\Users\josem\.gradle\caches\transforms-1\files-1.1\support-vector-drawable-28.0.0.aar\fd4e2518bca848f0c1a023295e68c5eb\AndroidManifest.xml:20:5-44
MERGED from [com.android.support:support-vector-drawable:28.0.0] C:\Users\josem\.gradle\caches\transforms-1\files-1.1\support-vector-drawable-28.0.0.aar\fd4e2518bca848f0c1a023295e68c5eb\AndroidManifest.xml:20:5-44
MERGED from [com.android.support:support-core-ui:28.0.0] C:\Users\josem\.gradle\caches\transforms-1\files-1.1\support-core-ui-28.0.0.aar\c7f3ee19131cc962d915c8b2f1d01213\AndroidManifest.xml:20:5-44
MERGED from [com.android.support:support-core-ui:28.0.0] C:\Users\josem\.gradle\caches\transforms-1\files-1.1\support-core-ui-28.0.0.aar\c7f3ee19131cc962d915c8b2f1d01213\AndroidManifest.xml:20:5-44
MERGED from [com.android.support:support-core-utils:28.0.0] C:\Users\josem\.gradle\caches\transforms-1\files-1.1\support-core-utils-28.0.0.aar\087ec0a3b223f2abadbb2600dbc784ed\AndroidManifest.xml:20:5-44
MERGED from [com.android.support:support-core-utils:28.0.0] C:\Users\josem\.gradle\caches\transforms-1\files-1.1\support-core-utils-28.0.0.aar\087ec0a3b223f2abadbb2600dbc784ed\AndroidManifest.xml:20:5-44
MERGED from [com.android.support:loader:28.0.0] C:\Users\josem\.gradle\caches\transforms-1\files-1.1\loader-28.0.0.aar\93366bcee428f2d73e5d11d6eee8d387\AndroidManifest.xml:20:5-44
MERGED from [com.android.support:loader:28.0.0] C:\Users\josem\.gradle\caches\transforms-1\files-1.1\loader-28.0.0.aar\93366bcee428f2d73e5d11d6eee8d387\AndroidManifest.xml:20:5-44
MERGED from [com.android.support:viewpager:28.0.0] C:\Users\josem\.gradle\caches\transforms-1\files-1.1\viewpager-28.0.0.aar\de6c8c2c0d729cbed43ffef5b40ba253\AndroidManifest.xml:20:5-44
MERGED from [com.android.support:viewpager:28.0.0] C:\Users\josem\.gradle\caches\transforms-1\files-1.1\viewpager-28.0.0.aar\de6c8c2c0d729cbed43ffef5b40ba253\AndroidManifest.xml:20:5-44
MERGED from [com.android.support:coordinatorlayout:28.0.0] C:\Users\josem\.gradle\caches\transforms-1\files-1.1\coordinatorlayout-28.0.0.aar\20b48e7a841b335f9f129689c6664606\AndroidManifest.xml:20:5-44
MERGED from [com.android.support:coordinatorlayout:28.0.0] C:\Users\josem\.gradle\caches\transforms-1\files-1.1\coordinatorlayout-28.0.0.aar\20b48e7a841b335f9f129689c6664606\AndroidManifest.xml:20:5-44
MERGED from [com.android.support:drawerlayout:28.0.0] C:\Users\josem\.gradle\caches\transforms-1\files-1.1\drawerlayout-28.0.0.aar\9d7fe745059d28bdf88585ec280afd98\AndroidManifest.xml:20:5-44
MERGED from [com.android.support:drawerlayout:28.0.0] C:\Users\josem\.gradle\caches\transforms-1\files-1.1\drawerlayout-28.0.0.aar\9d7fe745059d28bdf88585ec280afd98\AndroidManifest.xml:20:5-44
MERGED from [com.android.support:slidingpanelayout:28.0.0] C:\Users\josem\.gradle\caches\transforms-1\files-1.1\slidingpanelayout-28.0.0.aar\cf90f064d491d50e62f294beaf16269f\AndroidManifest.xml:20:5-44
MERGED from [com.android.support:slidingpanelayout:28.0.0] C:\Users\josem\.gradle\caches\transforms-1\files-1.1\slidingpanelayout-28.0.0.aar\cf90f064d491d50e62f294beaf16269f\AndroidManifest.xml:20:5-44
MERGED from [com.android.support:customview:28.0.0] C:\Users\josem\.gradle\caches\transforms-1\files-1.1\customview-28.0.0.aar\cf8fe07a712921be757d9c78654b5b71\AndroidManifest.xml:20:5-44
MERGED from [com.android.support:customview:28.0.0] C:\Users\josem\.gradle\caches\transforms-1\files-1.1\customview-28.0.0.aar\cf8fe07a712921be757d9c78654b5b71\AndroidManifest.xml:20:5-44
MERGED from [com.android.support:swiperefreshlayout:28.0.0] C:\Users\josem\.gradle\caches\transforms-1\files-1.1\swiperefreshlayout-28.0.0.aar\369814176f7a415b4931771d58a2715f\AndroidManifest.xml:20:5-44
MERGED from [com.android.support:swiperefreshlayout:28.0.0] C:\Users\josem\.gradle\caches\transforms-1\files-1.1\swiperefreshlayout-28.0.0.aar\369814176f7a415b4931771d58a2715f\AndroidManifest.xml:20:5-44
MERGED from [com.android.support:asynclayoutinflater:28.0.0] C:\Users\josem\.gradle\caches\transforms-1\files-1.1\asynclayoutinflater-28.0.0.aar\39243e632fa248d1ea57942eb2ab80ca\AndroidManifest.xml:20:5-44
MERGED from [com.android.support:asynclayoutinflater:28.0.0] C:\Users\josem\.gradle\caches\transforms-1\files-1.1\asynclayoutinflater-28.0.0.aar\39243e632fa248d1ea57942eb2ab80ca\AndroidManifest.xml:20:5-44
MERGED from [com.android.support:support-compat:28.0.0] C:\Users\josem\.gradle\caches\transforms-1\files-1.1\support-compat-28.0.0.aar\9e4087fcd546b04530b3b49f1ab97e9c\AndroidManifest.xml:20:5-44
MERGED from [com.android.support:support-compat:28.0.0] C:\Users\josem\.gradle\caches\transforms-1\files-1.1\support-compat-28.0.0.aar\9e4087fcd546b04530b3b49f1ab97e9c\AndroidManifest.xml:20:5-44
MERGED from [com.android.support:versionedparcelable:28.0.0] C:\Users\josem\.gradle\caches\transforms-1\files-1.1\versionedparcelable-28.0.0.aar\30b8d8304620a0a1ec540773adc41ad5\AndroidManifest.xml:20:5-44
MERGED from [com.android.support:versionedparcelable:28.0.0] C:\Users\josem\.gradle\caches\transforms-1\files-1.1\versionedparcelable-28.0.0.aar\30b8d8304620a0a1ec540773adc41ad5\AndroidManifest.xml:20:5-44
MERGED from [com.android.support:cursoradapter:28.0.0] C:\Users\josem\.gradle\caches\transforms-1\files-1.1\cursoradapter-28.0.0.aar\214b5a3ba42786fdf1f6c5363e641e4a\AndroidManifest.xml:20:5-44
MERGED from [com.android.support:cursoradapter:28.0.0] C:\Users\josem\.gradle\caches\transforms-1\files-1.1\cursoradapter-28.0.0.aar\214b5a3ba42786fdf1f6c5363e641e4a\AndroidManifest.xml:20:5-44
MERGED from [android.arch.persistence:db-framework:1.0.0] C:\Users\josem\.gradle\caches\transforms-1\files-1.1\db-framework-1.0.0.aar\5a0c2081030fe162e4600924815dcd9a\AndroidManifest.xml:20:5-22:41
MERGED from [android.arch.persistence:db-framework:1.0.0] C:\Users\josem\.gradle\caches\transforms-1\files-1.1\db-framework-1.0.0.aar\5a0c2081030fe162e4600924815dcd9a\AndroidManifest.xml:20:5-22:41
MERGED from [android.arch.persistence:db:1.0.0] C:\Users\josem\.gradle\caches\transforms-1\files-1.1\db-1.0.0.aar\ecce096a6f608e0e7b679705a62fc627\AndroidManifest.xml:20:5-22:41
MERGED from [android.arch.persistence:db:1.0.0] C:\Users\josem\.gradle\caches\transforms-1\files-1.1\db-1.0.0.aar\ecce096a6f608e0e7b679705a62fc627\AndroidManifest.xml:20:5-22:41
MERGED from [android.arch.lifecycle:runtime:1.1.1] C:\Users\josem\.gradle\caches\transforms-1\files-1.1\runtime-1.1.1.aar\a1b8423fb04631b316959a03ed473b6f\AndroidManifest.xml:20:5-44
MERGED from [android.arch.lifecycle:runtime:1.1.1] C:\Users\josem\.gradle\caches\transforms-1\files-1.1\runtime-1.1.1.aar\a1b8423fb04631b316959a03ed473b6f\AndroidManifest.xml:20:5-44
MERGED from [android.arch.lifecycle:viewmodel:1.1.1] C:\Users\josem\.gradle\caches\transforms-1\files-1.1\viewmodel-1.1.1.aar\85fc066bd28ac35568690b0377f555ef\AndroidManifest.xml:20:5-44
MERGED from [android.arch.lifecycle:viewmodel:1.1.1] C:\Users\josem\.gradle\caches\transforms-1\files-1.1\viewmodel-1.1.1.aar\85fc066bd28ac35568690b0377f555ef\AndroidManifest.xml:20:5-44
MERGED from [android.arch.lifecycle:livedata:1.1.1] C:\Users\josem\.gradle\caches\transforms-1\files-1.1\livedata-1.1.1.aar\98a6527d4bf7042b8089dd37f2c48d36\AndroidManifest.xml:20:5-44
MERGED from [android.arch.lifecycle:livedata:1.1.1] C:\Users\josem\.gradle\caches\transforms-1\files-1.1\livedata-1.1.1.aar\98a6527d4bf7042b8089dd37f2c48d36\AndroidManifest.xml:20:5-44
MERGED from [android.arch.lifecycle:livedata-core:1.1.1] C:\Users\josem\.gradle\caches\transforms-1\files-1.1\livedata-core-1.1.1.aar\37458039c6009f13cefe8d187337bbd1\AndroidManifest.xml:20:5-44
MERGED from [android.arch.lifecycle:livedata-core:1.1.1] C:\Users\josem\.gradle\caches\transforms-1\files-1.1\livedata-core-1.1.1.aar\37458039c6009f13cefe8d187337bbd1\AndroidManifest.xml:20:5-44
MERGED from [com.android.support:interpolator:28.0.0] C:\Users\josem\.gradle\caches\transforms-1\files-1.1\interpolator-28.0.0.aar\dc55fac53680991748eaed203e5684d0\AndroidManifest.xml:20:5-44
MERGED from [com.android.support:interpolator:28.0.0] C:\Users\josem\.gradle\caches\transforms-1\files-1.1\interpolator-28.0.0.aar\dc55fac53680991748eaed203e5684d0\AndroidManifest.xml:20:5-44
MERGED from [com.android.support:documentfile:28.0.0] C:\Users\josem\.gradle\caches\transforms-1\files-1.1\documentfile-28.0.0.aar\65d4c2596dbe9a174ae7b7294f1d4f38\AndroidManifest.xml:20:5-44
MERGED from [com.android.support:documentfile:28.0.0] C:\Users\josem\.gradle\caches\transforms-1\files-1.1\documentfile-28.0.0.aar\65d4c2596dbe9a174ae7b7294f1d4f38\AndroidManifest.xml:20:5-44
MERGED from [com.android.support:localbroadcastmanager:28.0.0] C:\Users\josem\.gradle\caches\transforms-1\files-1.1\localbroadcastmanager-28.0.0.aar\b1b9a1d4aec1515950f22a2c6533d49b\AndroidManifest.xml:20:5-44
MERGED from [com.android.support:localbroadcastmanager:28.0.0] C:\Users\josem\.gradle\caches\transforms-1\files-1.1\localbroadcastmanager-28.0.0.aar\b1b9a1d4aec1515950f22a2c6533d49b\AndroidManifest.xml:20:5-44
MERGED from [com.android.support:print:28.0.0] C:\Users\josem\.gradle\caches\transforms-1\files-1.1\print-28.0.0.aar\127227827a4b3330e1ad4ca903359a35\AndroidManifest.xml:20:5-44
MERGED from [com.android.support:print:28.0.0] C:\Users\josem\.gradle\caches\transforms-1\files-1.1\print-28.0.0.aar\127227827a4b3330e1ad4ca903359a35\AndroidManifest.xml:20:5-44
MERGED from [android.arch.core:runtime:1.1.1] C:\Users\josem\.gradle\caches\transforms-1\files-1.1\runtime-1.1.1.aar\923be988d44cc3dca41760cee1bc42eb\AndroidManifest.xml:20:5-44
MERGED from [android.arch.core:runtime:1.1.1] C:\Users\josem\.gradle\caches\transforms-1\files-1.1\runtime-1.1.1.aar\923be988d44cc3dca41760cee1bc42eb\AndroidManifest.xml:20:5-44
INJECTED from C:\Users\josem\Desktop\MasterRecipes\app\src\main\AndroidManifest.xml
INJECTED from C:\Users\josem\Desktop\MasterRecipes\app\src\main\AndroidManifest.xml
	android:targetSdkVersion
		INJECTED from C:\Users\josem\Desktop\MasterRecipes\app\src\main\AndroidManifest.xml
		ADDED from C:\Users\josem\Desktop\MasterRecipes\app\src\main\AndroidManifest.xml
		INJECTED from C:\Users\josem\Desktop\MasterRecipes\app\src\main\AndroidManifest.xml
	android:minSdkVersion
		INJECTED from C:\Users\josem\Desktop\MasterRecipes\app\src\main\AndroidManifest.xml
		ADDED from C:\Users\josem\Desktop\MasterRecipes\app\src\main\AndroidManifest.xml
		INJECTED from C:\Users\josem\Desktop\MasterRecipes\app\src\main\AndroidManifest.xml
